{"failedCount":0,"prefixedPath":"classpath:users\/sample.feature","packageQualifiedName":"users.sample","loopIndex":-1,"relativePath":"users\/sample.feature","scenarioResults":[{"sectionIndex":0,"stepResults":[{"result":{"nanos":55435000,"startTime":1719007968299,"endTime":1719007968354,"millis":55.435,"status":"passed"},"step":{"line":3,"prefix":"Given","index":0,"text":"url 'https:\/\/reqres.in\/api\/users\/2'"}},{"result":{"nanos":786456400,"startTime":1719007968357,"endTime":1719007969143,"millis":786.4564,"status":"passed"},"step":{"line":4,"prefix":"When","index":1,"text":"method GET"},"stepLog":"17:12:48.700 request:\n1 > GET https:\/\/reqres.in\/api\/users\/2\n1 > Host: reqres.in\n1 > Connection: Keep-Alive\n1 > User-Agent: Apache-HttpClient\/4.5.14 (Java\/15.0.2)\n1 > Accept-Encoding: gzip,deflate\n\n\n17:12:49.108 response time in milliseconds: 403\n1 < 200\n1 < Date: Fri, 21 Jun 2024 22:16:34 GMT\n1 < Content-Type: application\/json; charset=utf-8\n1 < Transfer-Encoding: chunked\n1 < Connection: keep-alive\n1 < Report-To: {\"group\":\"heroku-nel\",\"max_age\":3600,\"endpoints\":[{\"url\":\"https:\/\/nel.heroku.com\/reports?ts=1718831769&sid=c4c9725f-1ab0-44d8-820f-430df2718e11&s=ED%2BUJQbp7CT2i4NWWsBDl24fPGsYgJ1IE2%2B%2B5o7jXcY%3D\"}]}\n1 < Reporting-Endpoints: heroku-nel=https:\/\/nel.heroku.com\/reports?ts=1718831769&sid=c4c9725f-1ab0-44d8-820f-430df2718e11&s=ED%2BUJQbp7CT2i4NWWsBDl24fPGsYgJ1IE2%2B%2B5o7jXcY%3D\n1 < Nel: {\"report_to\":\"heroku-nel\",\"max_age\":3600,\"success_fraction\":0.005,\"failure_fraction\":0.05,\"response_headers\":[\"Via\"]}\n1 < X-Powered-By: Express\n1 < Access-Control-Allow-Origin: *\n1 < Etag: W\/\"118-pbdwwFo9SKNhD3Lx5iHJyngpq00\"\n1 < Via: 1.1 vegur\n1 < Cache-Control: max-age=14400\n1 < CF-Cache-Status: HIT\n1 < Age: 826\n1 < Vary: Accept-Encoding\n1 < Server: cloudflare\n1 < CF-RAY: 89775d22ad3e3996-BOG\n{\"data\":{\"id\":2,\"email\":\"janet.weaver@reqres.in\",\"first_name\":\"Janet\",\"last_name\":\"Weaver\",\"avatar\":\"https:\/\/reqres.in\/img\/faces\/2-image.jpg\"},\"support\":{\"url\":\"https:\/\/reqres.in\/#support-heading\",\"text\":\"To keep ReqRes free, contributions towards server costs are appreciated!\"}}\n\n"},{"result":{"nanos":52927900,"startTime":1719007969144,"endTime":1719007969197,"millis":52.9279,"status":"passed"},"step":{"line":5,"prefix":"And","index":2,"text":"match response.data.first_name == 'Janet'"}},{"result":{"nanos":33900,"startTime":1719007969196,"endTime":1719007969196,"millis":0.0339,"status":"passed"},"step":{"line":6,"prefix":"Then","index":3,"text":"status 200"}}],"executorName":"main","line":2,"name":"validar obtener usuario","description":"","durationMillis":894.8532,"startTime":1719007968291,"failed":false,"refId":"[1:2]","endTime":1719007969196,"exampleIndex":-1},{"sectionIndex":1,"stepResults":[{"result":{"nanos":74854200,"startTime":1719007969210,"endTime":1719007969285,"millis":74.8542,"status":"passed"},"step":{"line":9,"prefix":"*","index":0,"text":"def JsonResponse = read('..\/jsons\/UsuariosResponse.json')"}},{"result":{"nanos":822400,"startTime":1719007969285,"endTime":1719007969286,"millis":0.8224,"status":"passed"},"step":{"line":10,"prefix":"Given","index":1,"text":"url 'https:\/\/reqres.in\/api\/users?page=2'"}},{"result":{"nanos":103759000,"startTime":1719007969286,"endTime":1719007969390,"millis":103.759,"status":"passed"},"step":{"line":11,"prefix":"When","index":2,"text":"method GET"},"stepLog":"17:12:49.288 request:\n1 > GET https:\/\/reqres.in\/api\/users?page=2\n1 > Host: reqres.in\n1 > Connection: Keep-Alive\n1 > User-Agent: Apache-HttpClient\/4.5.14 (Java\/15.0.2)\n1 > Accept-Encoding: gzip,deflate\n\n\n17:12:49.388 response time in milliseconds: 96\n1 < 200\n1 < Date: Fri, 21 Jun 2024 22:16:35 GMT\n1 < Content-Type: application\/json; charset=utf-8\n1 < Transfer-Encoding: chunked\n1 < Connection: keep-alive\n1 < Report-To: {\"group\":\"heroku-nel\",\"max_age\":3600,\"endpoints\":[{\"url\":\"https:\/\/nel.heroku.com\/reports?ts=1718831758&sid=c4c9725f-1ab0-44d8-820f-430df2718e11&s=lFa%2B2XNOmIoXHF%2Bu4GCnSSo2v%2FOpiEvl14rsw7t0DHg%3D\"}]}\n1 < Reporting-Endpoints: heroku-nel=https:\/\/nel.heroku.com\/reports?ts=1718831758&sid=c4c9725f-1ab0-44d8-820f-430df2718e11&s=lFa%2B2XNOmIoXHF%2Bu4GCnSSo2v%2FOpiEvl14rsw7t0DHg%3D\n1 < Nel: {\"report_to\":\"heroku-nel\",\"max_age\":3600,\"success_fraction\":0.005,\"failure_fraction\":0.05,\"response_headers\":[\"Via\"]}\n1 < X-Powered-By: Express\n1 < Access-Control-Allow-Origin: *\n1 < Etag: W\/\"406-ut0vzoCuidvyMf8arZpMpJ6ZRDw\"\n1 < Via: 1.1 vegur\n1 < Cache-Control: max-age=14400\n1 < CF-Cache-Status: HIT\n1 < Age: 826\n1 < Vary: Accept-Encoding\n1 < Server: cloudflare\n1 < CF-RAY: 89775d247980399b-BOG\n{\"page\":2,\"per_page\":6,\"total\":12,\"total_pages\":2,\"data\":[{\"id\":7,\"email\":\"michael.lawson@reqres.in\",\"first_name\":\"Michael\",\"last_name\":\"Lawson\",\"avatar\":\"https:\/\/reqres.in\/img\/faces\/7-image.jpg\"},{\"id\":8,\"email\":\"lindsay.ferguson@reqres.in\",\"first_name\":\"Lindsay\",\"last_name\":\"Ferguson\",\"avatar\":\"https:\/\/reqres.in\/img\/faces\/8-image.jpg\"},{\"id\":9,\"email\":\"tobias.funke@reqres.in\",\"first_name\":\"Tobias\",\"last_name\":\"Funke\",\"avatar\":\"https:\/\/reqres.in\/img\/faces\/9-image.jpg\"},{\"id\":10,\"email\":\"byron.fields@reqres.in\",\"first_name\":\"Byron\",\"last_name\":\"Fields\",\"avatar\":\"https:\/\/reqres.in\/img\/faces\/10-image.jpg\"},{\"id\":11,\"email\":\"george.edwards@reqres.in\",\"first_name\":\"George\",\"last_name\":\"Edwards\",\"avatar\":\"https:\/\/reqres.in\/img\/faces\/11-image.jpg\"},{\"id\":12,\"email\":\"rachel.howell@reqres.in\",\"first_name\":\"Rachel\",\"last_name\":\"Howell\",\"avatar\":\"https:\/\/reqres.in\/img\/faces\/12-image.jpg\"}],\"support\":{\"url\":\"https:\/\/reqres.in\/#support-heading\",\"text\":\"To keep ReqRes free, contributions towards server costs are appreciated!\"}}\n\n"},{"result":{"nanos":10800,"startTime":1719007969390,"endTime":1719007969390,"millis":0.0108,"status":"passed"},"step":{"line":12,"prefix":"Then","index":3,"text":"status 200"}},{"result":{"nanos":2534100,"startTime":1719007969390,"endTime":1719007969393,"millis":2.5341,"status":"passed"},"step":{"line":13,"prefix":"And","index":4,"text":"match $ == JsonResponse"}},{"result":{"nanos":2829900,"startTime":1719007969393,"endTime":1719007969396,"millis":2.8299,"status":"passed"},"step":{"line":14,"prefix":"And","index":5,"text":"match $ == read('..\/jsons\/UsuariosResponse.json')"}},{"result":{"nanos":2925200,"startTime":1719007969396,"endTime":1719007969399,"millis":2.9252,"status":"passed"},"step":{"line":15,"prefix":"And","index":6,"text":"match JsonResponse.data[0].first_name == 'Michael'"}}],"executorName":"main","line":8,"name":"validar obtener lista de usuarios","description":"","durationMillis":187.7356,"startTime":1719007969210,"failed":false,"refId":"[2:8]","endTime":1719007969398,"exampleIndex":-1},{"sectionIndex":2,"stepResults":[{"result":{"nanos":491900,"startTime":1719007969409,"endTime":1719007969409,"millis":0.4919,"status":"passed"},"step":{"line":18,"prefix":"Given","index":0,"text":"url 'https:\/\/reqres.in\/api\/users'"}},{"result":{"nanos":1370800,"startTime":1719007969409,"endTime":1719007969410,"millis":1.3708,"status":"passed"},"step":{"line":19,"prefix":"When","index":1,"text":"request {\"name\": \"#(name)\",\"job\": \"#(job)\"}"}},{"result":{"nanos":576204400,"startTime":1719007969411,"endTime":1719007969987,"millis":576.2044,"status":"passed"},"step":{"line":20,"prefix":"And","index":2,"text":"method POST"},"stepLog":"17:12:49.477 request:\n1 > POST https:\/\/reqres.in\/api\/users\n1 > Content-Type: application\/json; charset=UTF-8\n1 > Content-Length: 38\n1 > Host: reqres.in\n1 > Connection: Keep-Alive\n1 > User-Agent: Apache-HttpClient\/4.5.14 (Java\/15.0.2)\n1 > Accept-Encoding: gzip,deflate\n{\"name\":\"Carvajal\",\"job\":\"Futbolista\"}\n\n17:12:49.983 response time in milliseconds: 504\n1 < 201\n1 < Date: Fri, 21 Jun 2024 22:16:35 GMT\n1 < Content-Type: application\/json; charset=utf-8\n1 < Content-Length: 88\n1 < Connection: keep-alive\n1 < Report-To: {\"group\":\"heroku-nel\",\"max_age\":3600,\"endpoints\":[{\"url\":\"https:\/\/nel.heroku.com\/reports?ts=1719008195&sid=c4c9725f-1ab0-44d8-820f-430df2718e11&s=CxcJTbZOPabM0iuTy6816zGCNzvTDMVPUT5ii6Dpj2o%3D\"}]}\n1 < Reporting-Endpoints: heroku-nel=https:\/\/nel.heroku.com\/reports?ts=1719008195&sid=c4c9725f-1ab0-44d8-820f-430df2718e11&s=CxcJTbZOPabM0iuTy6816zGCNzvTDMVPUT5ii6Dpj2o%3D\n1 < Nel: {\"report_to\":\"heroku-nel\",\"max_age\":3600,\"success_fraction\":0.005,\"failure_fraction\":0.05,\"response_headers\":[\"Via\"]}\n1 < X-Powered-By: Express\n1 < Access-Control-Allow-Origin: *\n1 < Etag: W\/\"58-\/LLrbHHxjxu8q0VRy8L\/WbJ3L7s\"\n1 < Via: 1.1 vegur\n1 < CF-Cache-Status: DYNAMIC\n1 < Server: cloudflare\n1 < CF-RAY: 89775d256a94399b-BOG\n{\"name\":\"Carvajal\",\"job\":\"Futbolista\",\"id\":\"869\",\"createdAt\":\"2024-06-21T22:16:35.797Z\"}\n\n"},{"result":{"nanos":19900,"startTime":1719007969986,"endTime":1719007969986,"millis":0.0199,"status":"passed"},"step":{"line":21,"prefix":"Then","index":3,"text":"status 201"}}],"line":25,"description":"","durationMillis":578.087,"failed":false,"executorName":"main","name":"validar creacion de usuario metodo post","startTime":1719007969409,"refId":"[3.1:25]","endTime":1719007969986,"exampleData":{"name":"Carvajal","job":"Futbolista"},"exampleIndex":0},{"sectionIndex":2,"stepResults":[{"result":{"nanos":288400,"startTime":1719007969997,"endTime":1719007969997,"millis":0.2884,"status":"passed"},"step":{"line":18,"prefix":"Given","index":0,"text":"url 'https:\/\/reqres.in\/api\/users'"}},{"result":{"nanos":383900,"startTime":1719007969998,"endTime":1719007969998,"millis":0.3839,"status":"passed"},"step":{"line":19,"prefix":"When","index":1,"text":"request {\"name\": \"#(name)\",\"job\": \"#(job)\"}"}},{"result":{"nanos":440758000,"startTime":1719007969998,"endTime":1719007970439,"millis":440.758,"status":"passed"},"step":{"line":20,"prefix":"And","index":2,"text":"method POST"},"stepLog":"17:12:50.000 request:\n1 > POST https:\/\/reqres.in\/api\/users\n1 > Content-Type: application\/json; charset=UTF-8\n1 > Content-Length: 32\n1 > Host: reqres.in\n1 > Connection: Keep-Alive\n1 > User-Agent: Apache-HttpClient\/4.5.14 (Java\/15.0.2)\n1 > Accept-Encoding: gzip,deflate\n{\"name\":\"Ramos\",\"job\":\"Quimico\"}\n\n17:12:50.437 response time in milliseconds: 435\n1 < 201\n1 < Date: Fri, 21 Jun 2024 22:16:36 GMT\n1 < Content-Type: application\/json; charset=utf-8\n1 < Content-Length: 82\n1 < Connection: keep-alive\n1 < Report-To: {\"group\":\"heroku-nel\",\"max_age\":3600,\"endpoints\":[{\"url\":\"https:\/\/nel.heroku.com\/reports?ts=1719008196&sid=c4c9725f-1ab0-44d8-820f-430df2718e11&s=SCp7fJYYhnYXjjXgAZ6HlhferJvGeUpZraIfhTeGYFY%3D\"}]}\n1 < Reporting-Endpoints: heroku-nel=https:\/\/nel.heroku.com\/reports?ts=1719008196&sid=c4c9725f-1ab0-44d8-820f-430df2718e11&s=SCp7fJYYhnYXjjXgAZ6HlhferJvGeUpZraIfhTeGYFY%3D\n1 < Nel: {\"report_to\":\"heroku-nel\",\"max_age\":3600,\"success_fraction\":0.005,\"failure_fraction\":0.05,\"response_headers\":[\"Via\"]}\n1 < X-Powered-By: Express\n1 < Access-Control-Allow-Origin: *\n1 < Etag: W\/\"52-wSs3cWbdBSnp1PzF4p7ougCydlU\"\n1 < Via: 1.1 vegur\n1 < CF-Cache-Status: DYNAMIC\n1 < Server: cloudflare\n1 < CF-RAY: 89775d28a97a3999-BOG\n{\"name\":\"Ramos\",\"job\":\"Quimico\",\"id\":\"206\",\"createdAt\":\"2024-06-21T22:16:36.254Z\"}\n\n"},{"result":{"nanos":18200,"startTime":1719007970439,"endTime":1719007970439,"millis":0.0182,"status":"passed"},"step":{"line":21,"prefix":"Then","index":3,"text":"status 201"}}],"line":26,"description":"","durationMillis":441.4485,"failed":false,"executorName":"main","name":"validar creacion de usuario metodo post","startTime":1719007969997,"refId":"[3.2:26]","endTime":1719007970439,"exampleData":{"name":"Ramos","job":"Quimico"},"exampleIndex":1},{"sectionIndex":2,"stepResults":[{"result":{"nanos":487100,"startTime":1719007970453,"endTime":1719007970453,"millis":0.4871,"status":"passed"},"step":{"line":18,"prefix":"Given","index":0,"text":"url 'https:\/\/reqres.in\/api\/users'"}},{"result":{"nanos":720800,"startTime":1719007970453,"endTime":1719007970454,"millis":0.7208,"status":"passed"},"step":{"line":19,"prefix":"When","index":1,"text":"request {\"name\": \"#(name)\",\"job\": \"#(job)\"}"}},{"result":{"nanos":379172000,"startTime":1719007970454,"endTime":1719007970833,"millis":379.172,"status":"passed"},"step":{"line":20,"prefix":"And","index":2,"text":"method POST"},"stepLog":"17:12:50.456 request:\n1 > POST https:\/\/reqres.in\/api\/users\n1 > Content-Type: application\/json; charset=UTF-8\n1 > Content-Length: 35\n1 > Host: reqres.in\n1 > Connection: Keep-Alive\n1 > User-Agent: Apache-HttpClient\/4.5.14 (Java\/15.0.2)\n1 > Accept-Encoding: gzip,deflate\n{\"name\":\"William\",\"job\":\"Mototaxi\"}\n\n17:12:50.832 response time in milliseconds: 374\n1 < 201\n1 < Date: Fri, 21 Jun 2024 22:16:36 GMT\n1 < Content-Type: application\/json; charset=utf-8\n1 < Content-Length: 85\n1 < Connection: keep-alive\n1 < Report-To: {\"group\":\"heroku-nel\",\"max_age\":3600,\"endpoints\":[{\"url\":\"https:\/\/nel.heroku.com\/reports?ts=1719008196&sid=c4c9725f-1ab0-44d8-820f-430df2718e11&s=SCp7fJYYhnYXjjXgAZ6HlhferJvGeUpZraIfhTeGYFY%3D\"}]}\n1 < Reporting-Endpoints: heroku-nel=https:\/\/nel.heroku.com\/reports?ts=1719008196&sid=c4c9725f-1ab0-44d8-820f-430df2718e11&s=SCp7fJYYhnYXjjXgAZ6HlhferJvGeUpZraIfhTeGYFY%3D\n1 < Nel: {\"report_to\":\"heroku-nel\",\"max_age\":3600,\"success_fraction\":0.005,\"failure_fraction\":0.05,\"response_headers\":[\"Via\"]}\n1 < X-Powered-By: Express\n1 < Access-Control-Allow-Origin: *\n1 < Etag: W\/\"55-GU\/fRIwy5Cbmed\/Ism5l9qMv6M4\"\n1 < Via: 1.1 vegur\n1 < CF-Cache-Status: DYNAMIC\n1 < Server: cloudflare\n1 < CF-RAY: 89775d2b89143996-BOG\n{\"name\":\"William\",\"job\":\"Mototaxi\",\"id\":\"876\",\"createdAt\":\"2024-06-21T22:16:36.648Z\"}\n\n"},{"result":{"nanos":14800,"startTime":1719007970834,"endTime":1719007970834,"millis":0.0148,"status":"passed"},"step":{"line":21,"prefix":"Then","index":3,"text":"status 201"}}],"line":27,"description":"","durationMillis":380.3947,"failed":false,"executorName":"main","name":"validar creacion de usuario metodo post","startTime":1719007970452,"refId":"[3.3:27]","endTime":1719007970834,"exampleData":{"name":"William","job":"Mototaxi"},"exampleIndex":2},{"sectionIndex":2,"stepResults":[{"result":{"nanos":478200,"startTime":1719007970848,"endTime":1719007970848,"millis":0.4782,"status":"passed"},"step":{"line":18,"prefix":"Given","index":0,"text":"url 'https:\/\/reqres.in\/api\/users'"}},{"result":{"nanos":572700,"startTime":1719007970849,"endTime":1719007970850,"millis":0.5727,"status":"passed"},"step":{"line":19,"prefix":"When","index":1,"text":"request {\"name\": \"#(name)\",\"job\": \"#(job)\"}"}},{"result":{"nanos":389176200,"startTime":1719007970849,"endTime":1719007971238,"millis":389.1762,"status":"passed"},"step":{"line":20,"prefix":"And","index":2,"text":"method POST"},"stepLog":"17:12:50.851 request:\n1 > POST https:\/\/reqres.in\/api\/users\n1 > Content-Type: application\/json; charset=UTF-8\n1 > Content-Length: 37\n1 > Host: reqres.in\n1 > Connection: Keep-Alive\n1 > User-Agent: Apache-HttpClient\/4.5.14 (Java\/15.0.2)\n1 > Accept-Encoding: gzip,deflate\n{\"name\":\"Cucurell\",\"job\":\"Camionero\"}\n\n17:12:51.237 response time in milliseconds: 384\n1 < 201\n1 < Date: Fri, 21 Jun 2024 22:16:37 GMT\n1 < Content-Type: application\/json; charset=utf-8\n1 < Content-Length: 87\n1 < Connection: keep-alive\n1 < Report-To: {\"group\":\"heroku-nel\",\"max_age\":3600,\"endpoints\":[{\"url\":\"https:\/\/nel.heroku.com\/reports?ts=1719008197&sid=c4c9725f-1ab0-44d8-820f-430df2718e11&s=hG9O%2FmcBHu2iUL5KTHLjr7N2TQJr6EsAmGJ9zUQQDs8%3D\"}]}\n1 < Reporting-Endpoints: heroku-nel=https:\/\/nel.heroku.com\/reports?ts=1719008197&sid=c4c9725f-1ab0-44d8-820f-430df2718e11&s=hG9O%2FmcBHu2iUL5KTHLjr7N2TQJr6EsAmGJ9zUQQDs8%3D\n1 < Nel: {\"report_to\":\"heroku-nel\",\"max_age\":3600,\"success_fraction\":0.005,\"failure_fraction\":0.05,\"response_headers\":[\"Via\"]}\n1 < X-Powered-By: Express\n1 < Access-Control-Allow-Origin: *\n1 < Etag: W\/\"57-RQ8wAFaZU+P6HJJnyxhi2YR43\/U\"\n1 < Via: 1.1 vegur\n1 < CF-Cache-Status: DYNAMIC\n1 < Server: cloudflare\n1 < CF-RAY: 89775d2e0bed3996-BOG\n{\"name\":\"Cucurell\",\"job\":\"Camionero\",\"id\":\"772\",\"createdAt\":\"2024-06-21T22:16:37.050Z\"}\n\n"},{"result":{"nanos":15400,"startTime":1719007971239,"endTime":1719007971239,"millis":0.0154,"status":"passed"},"step":{"line":21,"prefix":"Then","index":3,"text":"status 201"}}],"line":28,"description":"","durationMillis":390.2425,"failed":false,"executorName":"main","name":"validar creacion de usuario metodo post","startTime":1719007970847,"refId":"[3.4:28]","endTime":1719007971239,"exampleData":{"name":"Cucurell","job":"Camionero"},"exampleIndex":3},{"sectionIndex":3,"stepResults":[{"result":{"nanos":519700,"startTime":1719007971251,"endTime":1719007971252,"millis":0.5197,"status":"passed"},"step":{"line":31,"prefix":"Given","index":0,"text":"url 'https:\/\/reqres.in\/api\/users'"}},{"result":{"nanos":288500,"startTime":1719007971252,"endTime":1719007971252,"millis":0.2885,"status":"passed"},"step":{"endLine":38,"line":32,"prefix":"When","docString":"{\n    \"name\": \"morpheus\",\n    \"job\": \"leader\"\n}","index":1,"text":"request"}},{"result":{"nanos":385167700,"startTime":1719007971252,"endTime":1719007971637,"millis":385.1677,"status":"passed"},"step":{"line":39,"prefix":"And","index":2,"text":"method POST"},"stepLog":"17:12:51.254 request:\n1 > POST https:\/\/reqres.in\/api\/users\n1 > Content-Type: application\/json; charset=UTF-8\n1 > Content-Length: 34\n1 > Host: reqres.in\n1 > Connection: Keep-Alive\n1 > User-Agent: Apache-HttpClient\/4.5.14 (Java\/15.0.2)\n1 > Accept-Encoding: gzip,deflate\n{\"name\":\"morpheus\",\"job\":\"leader\"}\n\n17:12:51.637 response time in milliseconds: 381\n1 < 201\n1 < Date: Fri, 21 Jun 2024 22:16:37 GMT\n1 < Content-Type: application\/json; charset=utf-8\n1 < Content-Length: 84\n1 < Connection: keep-alive\n1 < Report-To: {\"group\":\"heroku-nel\",\"max_age\":3600,\"endpoints\":[{\"url\":\"https:\/\/nel.heroku.com\/reports?ts=1719008197&sid=c4c9725f-1ab0-44d8-820f-430df2718e11&s=hG9O%2FmcBHu2iUL5KTHLjr7N2TQJr6EsAmGJ9zUQQDs8%3D\"}]}\n1 < Reporting-Endpoints: heroku-nel=https:\/\/nel.heroku.com\/reports?ts=1719008197&sid=c4c9725f-1ab0-44d8-820f-430df2718e11&s=hG9O%2FmcBHu2iUL5KTHLjr7N2TQJr6EsAmGJ9zUQQDs8%3D\n1 < Nel: {\"report_to\":\"heroku-nel\",\"max_age\":3600,\"success_fraction\":0.005,\"failure_fraction\":0.05,\"response_headers\":[\"Via\"]}\n1 < X-Powered-By: Express\n1 < Access-Control-Allow-Origin: *\n1 < Etag: W\/\"54-Sph0IL2\/YTg2Mn3iXDcXKPTaPq0\"\n1 < Via: 1.1 vegur\n1 < CF-Cache-Status: DYNAMIC\n1 < Server: cloudflare\n1 < CF-RAY: 89775d3088ad399b-BOG\n{\"name\":\"morpheus\",\"job\":\"leader\",\"id\":\"198\",\"createdAt\":\"2024-06-21T22:16:37.454Z\"}\n\n"},{"result":{"nanos":10700,"startTime":1719007971638,"endTime":1719007971638,"millis":0.0107,"status":"passed"},"step":{"line":40,"prefix":"Then","index":3,"text":"status 201"}}],"executorName":"main","line":30,"name":"validar creacion de usuario metodo post 2","description":"","durationMillis":385.9866,"startTime":1719007971251,"failed":false,"refId":"[4:30]","endTime":1719007971638,"exampleIndex":-1},{"sectionIndex":4,"stepResults":[{"result":{"nanos":862000,"startTime":1719007971646,"endTime":1719007971647,"millis":0.862,"status":"passed"},"step":{"line":43,"prefix":"Given","index":0,"text":"url 'https:\/\/reqres.in\/api\/users\/2'"}},{"result":{"nanos":389686200,"startTime":1719007971647,"endTime":1719007972037,"millis":389.6862,"status":"passed"},"step":{"line":44,"prefix":"When","index":1,"text":"method DELETE"},"stepLog":"17:12:51.649 request:\n1 > DELETE https:\/\/reqres.in\/api\/users\/2\n1 > Host: reqres.in\n1 > Connection: Keep-Alive\n1 > User-Agent: Apache-HttpClient\/4.5.14 (Java\/15.0.2)\n1 > Accept-Encoding: gzip,deflate\n\n\n17:12:52.035 response time in milliseconds: 384\n1 < 204\n1 < Date: Fri, 21 Jun 2024 22:16:37 GMT\n1 < Content-Length: 0\n1 < Connection: keep-alive\n1 < Report-To: {\"group\":\"heroku-nel\",\"max_age\":3600,\"endpoints\":[{\"url\":\"https:\/\/nel.heroku.com\/reports?ts=1719008197&sid=c4c9725f-1ab0-44d8-820f-430df2718e11&s=hG9O%2FmcBHu2iUL5KTHLjr7N2TQJr6EsAmGJ9zUQQDs8%3D\"}]}\n1 < Reporting-Endpoints: heroku-nel=https:\/\/nel.heroku.com\/reports?ts=1719008197&sid=c4c9725f-1ab0-44d8-820f-430df2718e11&s=hG9O%2FmcBHu2iUL5KTHLjr7N2TQJr6EsAmGJ9zUQQDs8%3D\n1 < Nel: {\"report_to\":\"heroku-nel\",\"max_age\":3600,\"success_fraction\":0.005,\"failure_fraction\":0.05,\"response_headers\":[\"Via\"]}\n1 < X-Powered-By: Express\n1 < Access-Control-Allow-Origin: *\n1 < Etag: W\/\"2-vyGp6PvFo4RvsFtPoIWeCReyIC8\"\n1 < Via: 1.1 vegur\n1 < CF-Cache-Status: DYNAMIC\n1 < Server: cloudflare\n1 < CF-RAY: 89775d32fc2f3995-BOG\n\n\n"},{"result":{"nanos":14100,"startTime":1719007972037,"endTime":1719007972037,"millis":0.0141,"status":"passed"},"step":{"line":45,"prefix":"Then","index":2,"text":"status 204"}}],"executorName":"main","line":42,"name":"validar eliminar usuario metodo delete","description":"","durationMillis":390.5623,"startTime":1719007971646,"failed":false,"refId":"[5:42]","endTime":1719007972037,"exampleIndex":-1},{"sectionIndex":5,"stepResults":[{"result":{"nanos":273500,"startTime":1719007972045,"endTime":1719007972045,"millis":0.2735,"status":"passed"},"step":{"line":48,"prefix":"Given","index":0,"text":"url 'https:\/\/reqres.in\/api\/users\/2'"}},{"result":{"nanos":163000,"startTime":1719007972046,"endTime":1719007972046,"millis":0.163,"status":"passed"},"step":{"line":49,"prefix":"And","index":1,"text":"request {\"name\": \"Edwin\",\"job\": \"zion resident\"}"}},{"result":{"nanos":397022700,"startTime":1719007972046,"endTime":1719007972443,"millis":397.0227,"status":"passed"},"step":{"line":50,"prefix":"When","index":2,"text":"method PUT"},"stepLog":"17:12:52.049 request:\n1 > PUT https:\/\/reqres.in\/api\/users\/2\n1 > Content-Type: application\/json; charset=UTF-8\n1 > Content-Length: 38\n1 > Host: reqres.in\n1 > Connection: Keep-Alive\n1 > User-Agent: Apache-HttpClient\/4.5.14 (Java\/15.0.2)\n1 > Accept-Encoding: gzip,deflate\n{\"name\":\"Edwin\",\"job\":\"zion resident\"}\n\n17:12:52.441 response time in milliseconds: 389\n1 < 200\n1 < Date: Fri, 21 Jun 2024 22:16:38 GMT\n1 < Content-Type: application\/json; charset=utf-8\n1 < Transfer-Encoding: chunked\n1 < Connection: keep-alive\n1 < Report-To: {\"group\":\"heroku-nel\",\"max_age\":3600,\"endpoints\":[{\"url\":\"https:\/\/nel.heroku.com\/reports?ts=1719008198&sid=c4c9725f-1ab0-44d8-820f-430df2718e11&s=zDn%2FYT4WIeP7ktA6ZJtp5TtB9t69VczDqsDHlJH3Gk0%3D\"}]}\n1 < Reporting-Endpoints: heroku-nel=https:\/\/nel.heroku.com\/reports?ts=1719008198&sid=c4c9725f-1ab0-44d8-820f-430df2718e11&s=zDn%2FYT4WIeP7ktA6ZJtp5TtB9t69VczDqsDHlJH3Gk0%3D\n1 < Nel: {\"report_to\":\"heroku-nel\",\"max_age\":3600,\"success_fraction\":0.005,\"failure_fraction\":0.05,\"response_headers\":[\"Via\"]}\n1 < X-Powered-By: Express\n1 < Access-Control-Allow-Origin: *\n1 < Etag: W\/\"4d-JloMhlB9vX1bQhVPReMfNwjIRMw\"\n1 < Via: 1.1 vegur\n1 < CF-Cache-Status: DYNAMIC\n1 < Vary: Accept-Encoding\n1 < Server: cloudflare\n1 < CF-RAY: 89775d359f823995-BOG\n{\"name\":\"Edwin\",\"job\":\"zion resident\",\"updatedAt\":\"2024-06-21T22:16:38.258Z\"}\n\n"},{"result":{"nanos":15300,"startTime":1719007972443,"endTime":1719007972443,"millis":0.0153,"status":"passed"},"step":{"line":51,"prefix":"Then","index":3,"text":"status 200"}},{"result":{"nanos":1773400,"startTime":1719007972443,"endTime":1719007972445,"millis":1.7734,"status":"passed"},"step":{"line":52,"prefix":"And","index":4,"text":"match $.name == \"Edwin\""}}],"executorName":"main","line":47,"name":"validar metodo put","description":"","durationMillis":399.2479,"startTime":1719007972045,"failed":false,"refId":"[6:47]","endTime":1719007972445,"exampleIndex":-1}],"callDepth":0,"name":"Validar api regresin","description":"","resultDate":"2024-06-21 05:12:52 p. m.","durationMillis":4048.5583,"passedCount":9}